|NU_ANO_CENSO||ID_ALUNO||ID_MATRICULA||NU_MES||NU_ANO||NU_IDADE_REFERENCIA||NU_IDADE||TP_SEXO||TP_COR_RACA||TP_NACIONALIDADE||CO_PAIS_ORIGEM||CO_UF_NASC||CO_MUNICIPIO_NASC||CO_UF_END||CO_MUNICIPIO_END||TP_ZONA_RESIDENCIAL||TP_LOCAL_RESID_DIFERENCIADA||IN_NECESSIDADE_ESPECIAL||IN_BAIXA_VISAO||IN_CEGUEIRA||IN_DEF_AUDITIVA||IN_DEF_FISICA||IN_DEF_INTELECTUAL||IN_SURDEZ||IN_SURDOCEGUEIRA||IN_DEF_MULTIPLA||IN_AUTISMO||IN_SUPERDOTACAO||IN_RECURSO_LEDOR||IN_RECURSO_TRANSCRICAO||IN_RECURSO_INTERPRETE||IN_RECURSO_LIBRAS||IN_RECURSO_LABIAL||IN_RECURSO_AMPLIADA_18||IN_RECURSO_AMPLIADA_24||IN_RECURSO_CD_AUDIO||IN_RECURSO_PROVA_PORTUGUES||IN_RECURSO_VIDEO_LIBRAS||IN_RECURSO_BRAILLE||IN_RECURSO_NENHUM||IN_AEE_LIBRAS||IN_AEE_LINGUA_PORTUGUESA||IN_AEE_INFORMATICA_ACESSIVEL||IN_AEE_BRAILLE||IN_AEE_CAA||IN_AEE_SOROBAN||IN_AEE_VIDA_AUTONOMA||IN_AEE_OPTICOS_NAO_OPTICOS||IN_AEE_ENRIQ_CURRICULAR||IN_AEE_DESEN_COGNITIVO||IN_AEE_MOBILIDADE||TP_OUTRO_LOCAL_AULA||IN_TRANSPORTE_PUBLICO||TP_RESPONSAVEL_TRANSPORTE||IN_TRANSP_BICICLETA||IN_TRANSP_MICRO_ONIBUS||IN_TRANSP_ONIBUS||IN_TRANSP_TR_ANIMAL||IN_TRANSP_VANS_KOMBI||IN_TRANSP_OUTRO_VEICULO||IN_TRANSP_EMBAR_ATE5||IN_TRANSP_EMBAR_5A15||IN_TRANSP_EMBAR_15A35||IN_TRANSP_EMBAR_35||TP_ETAPA_ENSINO||IN_ESPECIAL_EXCLUSIVA||IN_REGULAR||IN_EJA||IN_PROFISSIONALIZANTE||ID_TURMA||CO_CURSO_EDUC_PROFISSIONAL||TP_MEDIACAO_DIDATICO_PEDAGO||NU_DURACAO_TURMA||NU_DUR_ATIV_COMP_MESMA_REDE||NU_DUR_ATIV_COMP_OUTRAS_REDES||NU_DUR_AEE_MESMA_REDE||NU_DUR_AEE_OUTRAS_REDES||NU_DIAS_ATIVIDADE||TP_UNIFICADA||TP_TIPO_ATENDIMENTO_TURMA||TP_TIPO_LOCAL_TURMA||CO_ENTIDADE||CO_REGIAO||CO_MESORREGIAO||CO_MICRORREGIAO||CO_UF||CO_MUNICIPIO||CO_DISTRITO||TP_DEPENDENCIA||TP_LOCALIZACAO||TP_CATEGORIA_ESCOLA_PRIVADA||IN_CONVENIADA_PP||TP_CONVENIO_PODER_PUBLICO||IN_MANT_ESCOLA_PRIVADA_EMP||IN_MANT_ESCOLA_PRIVADA_ONG||IN_MANT_ESCOLA_PRIVADA_OSCIP||IN_MANT_ESCOLA_PRIV_ONG_OSCIP||IN_MANT_ESCOLA_PRIVADA_SIND||IN_MANT_ESCOLA_PRIVADA_SIST_S||IN_MANT_ESCOLA_PRIVADA_S_FINS||TP_REGULAMENTACAO||TP_LOCALIZACAO_DIFERENCIADA||IN_EDUCACAO_INDIGENA|
|2020||DB40542357729209B7BCEEC08861C0E2||101||4||2010||10||10||2||3||1||76||27||2704302||27||2704302||1||||0||||||||||||||||||||||||||||||||||||||||||||||||||||||||||||||||||||3||0||||||||||||||||||||||||18||0||1||0||0||6647419||||1||270||0||0||0||0||5||0||1||0||27048896||2||2703||27011||27||2704302||270430205||4||1||1||0||||1||0||0||0||0||0||0||1||0||0|
|2020||56A624969D3381901C10AAA6478E29AE||104||8||2009||10||11||2||1||1||76||27||2704302||27||2704302||1||||0||||||||||||||||||||||||||||||||||||||||||||||||||||||||||||||||||||3||0||||||||||||||||||||||||18||0||1||0||0||6647419||||1||270||0||0||0||0||5||0||1||0||27048896||2||2703||27011||27||2704302||270430205||4||1||1||0||||1||0||0||0||0||0||0||1||0||0|
|2020||36C598A929F3B6EB69B48E11E07EDFA4||106||3||2010||10||10||2||3||1||76||27||2704302||27||2704302||1||||0||||||||||||||||||||||||||||||||||||||||||||||||||||||||||||||||||||3||0||||||||||||||||||||||||18||0||1||0||0||6647419||||1||270||0||0||0||0||5||0||1||0||27048896||2||2703||27011||27||2704302||270430205||4||1||1||0||||1||0||0||0||0||0||0||1||0||0|
|2020||CE136BD21BAF3A0D02D623BFE7779D89||109||8||2009||10||11||1||3||1||76||27||2704302||27||2704302||1||||0||||||||||||||||||||||||||||||||||||||||||||||||||||||||||||||||||||3||0||||||||||||||||||||||||18||0||1||0||0||6647419||||1||270||0||0||0||0||5||0||1||0||27048896||2||2703||27011||27||2704302||270430205||4||1||1||0||||1||0||0||0||0||0||0||1||0||0|
|2020||88D4C9CC4EC75E013E121AB50904E034||110||5||2010||10||10||1||1||1||76||27||2704302||27||2704302||1||||0||||||||||||||||||||||||||||||||||||||||||||||||||||||||||||||||||||3||0||||||||||||||||||||||||18||0||1||0||0||6647419||||1||270||0||0||0||0||5||0||1||0||27048896||2||2703||27011||27||2704302||270430205||4||1||1||0||||1||0||0||0||0||0||0||1||0||0|
